<?xml version="1.0" encoding="utf-8"?>
<!-- Generator: Adobe Illustrator 22.0.1, SVG Export Plug-In . SVG Version: 6.00 Build 0)  -->
<svg version="1.1" id="Lager_1" xmlns="http://www.w3.org/2000/svg" xmlns:xlink="http://www.w3.org/1999/xlink" x="0px" y="0px"
	 viewBox="0 0 500 500" style="enable-background:new 0 0 500 500;" xml:space="preserve">
<style type="text/css">
	.st0{enable-background:new    ;}
	.st1{fill:#FFEA58;}
	.st2{fill:#2D4E5F;}
</style>
<g class="st0">
	<path class="st1" d="M133.7,181c22.2-22.2,33.5-40.9,33.5-62.6c0-24.7-19.7-43.9-47.8-43.9C74,74.4,64.1,111,35,111
		c-16.8,0-24.7-11.8-24.7-24.2c0-28.6,45.9-68.6,112-68.6c65.1,0,105.1,43.4,105.1,95.7c0,35-14.3,65.1-51.8,100.1l-78.4,73.5h112.5
		c15.8,0,26.6,10.9,26.6,27.1c0,15.3-10.9,26.1-26.6,26.1H43.9c-19.2,0-29.6-10.9-29.6-26.6c0-13.8,7.9-22.7,20.2-35L133.7,181z"/>
	<path class="st1" d="M370.9,186.9c-37,0-47.8,14.3-66.6,14.3c-16.3,0-25.7-9.4-22.7-31.1l19.2-119.4c2.5-16.8,13.8-26.1,30.6-26.1
		h120.4c15.8,0,26.6,10.9,26.6,26.6c0,15.8-10.9,26.6-26.6,26.6h-97.7L343.3,142c9.9-4.4,27.1-6.4,40-6.4
		c66.6,0,105.6,43.9,105.6,104.6c0,61.7-44.4,107-117.4,107c-61.7,0-103.6-36.5-103.6-66.1c0-12.3,7.4-24.2,25.2-24.2
		c23.7,0,37.5,34,79.9,34c35,0,55.7-22.2,55.7-51.8C428.6,210.1,408.4,186.9,370.9,186.9z"/>
</g>
<g class="st0">
	<path class="st2" d="M72.8,411.4c2.9,3,4.4,7.6,4.4,13.7v21.7c0,1.6-0.5,2.9-1.4,3.8c-1,0.9-2.3,1.4-3.9,1.4
		c-1.5,0-2.8-0.5-3.8-1.4s-1.5-2.2-1.5-3.7v-2c-1,2.3-2.6,4.1-4.8,5.4c-2.2,1.3-4.7,2-7.5,2c-2.9,0-5.6-0.6-7.9-1.8
		c-2.4-1.2-4.2-2.8-5.6-4.9c-1.4-2.1-2-4.4-2-6.9c0-3.2,0.8-5.7,2.5-7.6c1.6-1.8,4.3-3.2,8-4c3.7-0.8,8.8-1.2,15.2-1.2h2.2v-2
		c0-2.9-0.6-5-1.9-6.4c-1.2-1.3-3.3-2-6.1-2c-1.7,0-3.5,0.3-5.3,0.8c-1.8,0.5-3.9,1.2-6.3,2.2c-1.5,0.8-2.7,1.2-3.4,1.2
		c-1.1,0-1.9-0.4-2.6-1.2c-0.7-0.8-1-1.8-1-3c0-1,0.3-1.9,0.8-2.6c0.5-0.7,1.4-1.4,2.5-2.1c2.1-1.1,4.6-2,7.4-2.7
		c2.9-0.7,5.7-1,8.5-1C65.4,406.9,69.9,408.4,72.8,411.4z M63.8,441.2c1.9-2,2.8-4.6,2.8-7.7v-1.9H65c-4,0-7.1,0.2-9.3,0.5
		c-2.2,0.4-3.8,1-4.7,1.9c-1,0.9-1.4,2.1-1.4,3.7c0,1.9,0.7,3.5,2,4.7c1.3,1.2,3,1.8,4.9,1.8C59.5,444.2,62,443.2,63.8,441.2z
		 M52.7,399.7c-1.8-1.8-2.8-4-2.8-6.6s0.9-4.8,2.8-6.6c1.8-1.8,4.1-2.7,6.7-2.7c2.6,0,4.8,0.9,6.7,2.7c1.8,1.8,2.8,4,2.8,6.6
		s-0.9,4.8-2.8,6.6c-1.8,1.8-4.1,2.7-6.7,2.7C56.7,402.3,54.5,401.4,52.7,399.7z M62.2,396c0.8-0.8,1.2-1.8,1.2-3
		c0-1.2-0.4-2.2-1.2-3c-0.8-0.8-1.7-1.2-2.9-1.2c-1.1,0-2.1,0.4-2.9,1.2c-0.8,0.8-1.2,1.8-1.2,3c0,1.2,0.4,2.2,1.2,3
		c0.8,0.8,1.7,1.2,2.9,1.2C60.5,397.2,61.4,396.8,62.2,396z"/>
	<path class="st2" d="M116.5,408c0.9,0.8,1.3,1.9,1.3,3.5c0,1.6-0.4,2.8-1.2,3.6c-0.8,0.8-2.2,1.3-4.2,1.5l-2.7,0.3
		c-3.5,0.4-6.1,1.5-7.7,3.6c-1.6,2-2.4,4.5-2.4,7.6v18.7c0,1.7-0.5,3-1.6,4c-1.1,0.9-2.4,1.4-4,1.4s-2.9-0.5-4-1.4
		c-1-0.9-1.6-2.2-1.6-4v-34.5c0-1.7,0.5-2.9,1.6-3.8c1-0.9,2.3-1.3,3.9-1.3c1.5,0,2.8,0.4,3.7,1.3c0.9,0.9,1.4,2.1,1.4,3.7v3.6
		c1.1-2.6,2.8-4.6,5-6.1c2.2-1.4,4.7-2.2,7.4-2.4l1.2-0.1C114.4,406.9,115.6,407.3,116.5,408z"/>
	<path class="st2" d="M122.3,448.4c-1.9-1.1-2.9-2.7-2.9-4.8c0-1.2,0.3-2.2,1-2.9c0.7-0.7,1.5-1.1,2.4-1.1c1,0,2.4,0.5,4.2,1.4
		c1.9,0.9,3.6,1.6,5.2,2c1.6,0.5,3.6,0.7,6,0.7c2.5,0,4.4-0.4,5.8-1.2c1.4-0.8,2.1-2,2.1-3.5c0-1-0.3-1.8-0.8-2.4
		c-0.6-0.6-1.6-1.1-3-1.6c-1.5-0.5-3.7-1.1-6.6-1.7c-5.3-1.1-9.1-2.6-11.4-4.5c-2.3-2-3.4-4.7-3.4-8.1c0-2.6,0.8-5,2.3-7.1
		c1.5-2.1,3.7-3.7,6.4-4.9c2.7-1.2,5.8-1.7,9.2-1.7c2.5,0,4.9,0.3,7.2,0.9c2.3,0.6,4.4,1.5,6.2,2.7c1.9,1.2,2.9,2.8,2.9,4.7
		c0,1.2-0.3,2.2-1,3c-0.7,0.8-1.5,1.2-2.4,1.2c-0.7,0-1.3-0.1-1.9-0.4c-0.6-0.3-1.4-0.7-2.4-1.2c-1.7-0.9-3.2-1.6-4.5-2
		s-2.8-0.7-4.6-0.7c-2.2,0-3.9,0.4-5.2,1.3c-1.3,0.9-1.9,2.1-1.9,3.7c0,1.5,0.7,2.6,2,3.4c1.3,0.8,3.8,1.5,7.6,2.3
		c4,0.8,7.1,1.8,9.4,2.9c2.3,1.1,3.9,2.4,4.9,4c1,1.6,1.5,3.7,1.5,6.1c0,4-1.7,7.3-5,9.7c-3.4,2.4-7.8,3.7-13.4,3.7
		C131.5,452.2,126.3,450.9,122.3,448.4z"/>
	<path class="st2" d="M230.5,408.5c1,1,1.5,2.2,1.5,3.8v35.2c0,6.8-1.9,12-5.7,15.5c-3.8,3.5-9.4,5.3-16.8,5.3
		c-6.5,0-11.9-1.2-16.2-3.7c-2.2-1.3-3.3-2.9-3.3-4.7c0-1.3,0.3-2.3,0.9-3.1c0.6-0.8,1.4-1.2,2.4-1.2c0.5,0,1.2,0.1,2,0.4
		c0.8,0.3,1.6,0.6,2.4,0.9c2.1,0.9,4.1,1.6,5.7,2c1.7,0.5,3.6,0.7,5.8,0.7c7.8,0,11.7-3.8,11.7-11.4v-5.7c-1.3,2.4-3.2,4.3-5.7,5.7
		c-2.5,1.3-5.3,2-8.6,2c-3.8,0-7.2-0.9-10.1-2.7c-2.9-1.8-5.2-4.4-6.9-7.6c-1.7-3.3-2.5-7-2.5-11.3s0.8-8.1,2.4-11.4
		c1.6-3.3,3.9-5.8,6.9-7.7c3-1.8,6.4-2.7,10.2-2.7c3.2,0,6.1,0.7,8.6,2c2.5,1.3,4.4,3.2,5.7,5.7v-2.3c0-1.5,0.5-2.8,1.5-3.7
		c1-0.9,2.3-1.4,4-1.4C228.1,407,229.5,407.5,230.5,408.5z M217.9,438.1c2-2.3,3-5.5,3-9.5c0-4.1-1-7.3-3-9.6
		c-2-2.3-4.8-3.5-8.3-3.5c-3.5,0-6.3,1.2-8.3,3.5c-2,2.3-3,5.5-3,9.6c0,4,1,7.2,3,9.5c2,2.3,4.8,3.5,8.3,3.5
		C213.2,441.6,216,440.5,217.9,438.1z"/>
	<path class="st2" d="M275.9,411.4c2.9,3,4.4,7.6,4.4,13.7v21.7c0,1.6-0.5,2.9-1.4,3.8c-1,0.9-2.3,1.4-3.9,1.4
		c-1.5,0-2.8-0.5-3.8-1.4c-1-1-1.5-2.2-1.5-3.7v-2c-1,2.3-2.6,4.1-4.8,5.4s-4.7,2-7.5,2c-2.9,0-5.6-0.6-7.9-1.8
		c-2.4-1.2-4.2-2.8-5.6-4.9c-1.4-2.1-2-4.4-2-6.9c0-3.2,0.8-5.7,2.5-7.6c1.6-1.8,4.3-3.2,8-4c3.7-0.8,8.8-1.2,15.2-1.2h2.2v-2
		c0-2.9-0.6-5-1.9-6.4c-1.2-1.3-3.3-2-6.1-2c-1.7,0-3.5,0.3-5.3,0.8c-1.8,0.5-3.9,1.2-6.3,2.2c-1.5,0.8-2.7,1.2-3.4,1.2
		c-1.1,0-1.9-0.4-2.6-1.2c-0.7-0.8-1-1.8-1-3c0-1,0.3-1.9,0.8-2.6c0.5-0.7,1.4-1.4,2.5-2.1c2.1-1.1,4.6-2,7.4-2.7
		c2.9-0.7,5.7-1,8.5-1C268.4,406.9,272.9,408.4,275.9,411.4z M266.9,441.2c1.9-2,2.8-4.6,2.8-7.7v-1.9h-1.6c-4,0-7.1,0.2-9.3,0.5
		c-2.2,0.4-3.8,1-4.7,1.9c-1,0.9-1.4,2.1-1.4,3.7c0,1.9,0.7,3.5,2,4.7c1.3,1.2,3,1.8,4.9,1.8C262.6,444.2,265,443.2,266.9,441.2z"/>
	<path class="st2" d="M319.5,408c0.9,0.8,1.3,1.9,1.3,3.5c0,1.6-0.4,2.8-1.2,3.6c-0.8,0.8-2.2,1.3-4.2,1.5l-2.7,0.3
		c-3.5,0.4-6.1,1.5-7.7,3.6c-1.6,2-2.5,4.5-2.5,7.6v18.7c0,1.7-0.5,3-1.6,4c-1.1,0.9-2.4,1.4-4,1.4s-2.9-0.5-4-1.4
		c-1-0.9-1.6-2.2-1.6-4v-34.5c0-1.7,0.5-2.9,1.6-3.8c1-0.9,2.3-1.3,3.9-1.3c1.5,0,2.8,0.4,3.7,1.3c1,0.9,1.4,2.1,1.4,3.7v3.6
		c1.1-2.6,2.8-4.6,5-6.1c2.2-1.4,4.7-2.2,7.4-2.4l1.2-0.1C317.4,406.9,318.7,407.3,319.5,408z"/>
	<path class="st2" d="M357.9,411.4c2.9,3,4.4,7.6,4.4,13.7v21.7c0,1.6-0.5,2.9-1.4,3.8c-1,0.9-2.3,1.4-3.9,1.4
		c-1.5,0-2.8-0.5-3.8-1.4c-1-1-1.5-2.2-1.5-3.7v-2c-1,2.3-2.6,4.1-4.8,5.4c-2.2,1.3-4.7,2-7.5,2c-2.9,0-5.6-0.6-7.9-1.8
		c-2.4-1.2-4.2-2.8-5.6-4.9c-1.4-2.1-2-4.4-2-6.9c0-3.2,0.8-5.7,2.5-7.6c1.6-1.8,4.3-3.2,8-4c3.7-0.8,8.8-1.2,15.2-1.2h2.2v-2
		c0-2.9-0.6-5-1.9-6.4c-1.2-1.3-3.3-2-6.1-2c-1.7,0-3.5,0.3-5.3,0.8c-1.8,0.5-3.9,1.2-6.3,2.2c-1.5,0.8-2.7,1.2-3.4,1.2
		c-1.1,0-1.9-0.4-2.6-1.2c-0.7-0.8-1-1.8-1-3c0-1,0.3-1.9,0.8-2.6c0.5-0.7,1.3-1.4,2.5-2.1c2.1-1.1,4.6-2,7.4-2.7
		c2.9-0.7,5.7-1,8.5-1C350.5,406.9,355,408.4,357.9,411.4z M348.9,441.2c1.9-2,2.8-4.6,2.8-7.7v-1.9h-1.6c-4,0-7.1,0.2-9.3,0.5
		c-2.2,0.4-3.8,1-4.7,1.9c-1,0.9-1.4,2.1-1.4,3.7c0,1.9,0.7,3.5,2,4.7c1.3,1.2,3,1.8,4.9,1.8C344.6,444.2,347,443.2,348.9,441.2z"/>
	<path class="st2" d="M410.6,411.3c2.6,3,3.8,7.5,3.8,13.5v21.9c0,1.7-0.5,3-1.5,3.9c-1,0.9-2.3,1.4-4.1,1.4c-1.7,0-3.1-0.5-4.1-1.4
		c-1-0.9-1.5-2.3-1.5-3.9v-21.3c0-3.4-0.6-5.8-1.9-7.4c-1.3-1.5-3.3-2.3-6-2.3c-3.2,0-5.8,1-7.7,3c-1.9,2-2.9,4.7-2.9,8.1v19.9
		c0,1.7-0.5,3-1.5,3.9c-1,0.9-2.4,1.4-4.1,1.4c-1.7,0-3.1-0.5-4.1-1.4c-1-0.9-1.5-2.3-1.5-3.9v-34.5c0-1.5,0.5-2.8,1.5-3.7
		c1-0.9,2.4-1.4,4.1-1.4c1.5,0,2.8,0.5,3.8,1.4c1,0.9,1.5,2.1,1.5,3.6v2.4c1.5-2.4,3.5-4.3,6-5.6c2.5-1.3,5.3-2,8.5-2
		C404.1,406.9,408,408.4,410.6,411.3z"/>
	<path class="st2" d="M452.8,447.8c0,1.4-0.6,2.5-1.7,3.3c-1.2,0.7-2.8,1.1-4.9,0.9l-2.4-0.2c-10-0.7-15-6.1-15-16v-19.4h-4.5
		c-1.6,0-2.8-0.4-3.7-1.1c-0.9-0.7-1.3-1.8-1.3-3.1c0-1.4,0.4-2.4,1.3-3.1c0.9-0.7,2.1-1.1,3.7-1.1h4.5v-8.2c0-1.6,0.5-2.9,1.5-3.8
		c1-0.9,2.4-1.4,4.1-1.4c1.7,0,3,0.5,4,1.4c1,1,1.5,2.2,1.5,3.8v8.2h7.6c1.6,0,2.8,0.4,3.7,1.1c0.9,0.7,1.3,1.8,1.3,3.1
		c0,1.4-0.4,2.4-1.3,3.1c-0.9,0.7-2.1,1.1-3.7,1.1h-7.6v20.2c0,4.4,2,6.7,6.1,7l2.4,0.2C451.3,443.9,452.8,445.3,452.8,447.8z"/>
	<path class="st2" d="M459.3,397.5c-1.2-1.1-1.8-2.5-1.8-4.3c0-1.8,0.6-3.2,1.8-4.3c1.2-1.1,2.8-1.6,4.8-1.6c2,0,3.5,0.5,4.8,1.6
		c1.2,1.1,1.8,2.5,1.8,4.3c0,1.8-0.6,3.2-1.8,4.3c-1.2,1.1-2.8,1.6-4.8,1.6C462.1,399.1,460.5,398.6,459.3,397.5z M460.2,450.7
		c-1-0.9-1.6-2.2-1.6-4v-34.4c0-1.7,0.5-3,1.6-3.9c1-0.9,2.4-1.3,4-1.3s2.9,0.4,4,1.3s1.6,2.2,1.6,3.9v34.4c0,1.7-0.5,3-1.6,4
		c-1.1,0.9-2.4,1.4-4,1.4S461.2,451.6,460.2,450.7z"/>
</g>
</svg>
