<?xml version="1.0" encoding="utf-8"?>
<!-- Generator: Adobe Illustrator 22.0.1, SVG Export Plug-In . SVG Version: 6.00 Build 0)  -->
<svg version="1.1" id="Lager_1" xmlns="http://www.w3.org/2000/svg" xmlns:xlink="http://www.w3.org/1999/xlink" x="0px" y="0px"
	 viewBox="0 0 100 100" style="enable-background:new 0 0 100 100;" xml:space="preserve">
<style type="text/css">
	.st0{fill:#FFCF0B;}
	.st1{fill:#2D4E5F;}
</style>
<g>
	<g>
		<g>
			<g>
				<polygon class="st0" points="29.4,35.4 20.4,35.4 25.4,41.1 34.3,41.1 				"/>
			</g>
			<g>
				<polygon class="st0" points="44.7,41.1 39.8,35.4 30.8,35.4 35.7,41.1 				"/>
			</g>
			<g>
				<polygon class="st0" points="55,41.1 50.1,35.4 41.2,35.4 46.1,41.1 				"/>
			</g>
		</g>
		<g>
			<path class="st1" d="M24.4,41.6l-5.5-6.4c-0.1-0.2-0.2-0.4-0.1-0.6c0.1-0.2,0.3-0.3,0.5-0.3h31.1c0.2,0,0.3,0.1,0.4,0.2l6.1,7.1
				h1.4l-6.7-7.8c-0.3-0.3-0.7-0.5-1.2-0.5H19.3c-0.6,0-1.2,0.4-1.4,0.9c-0.3,0.6-0.2,1.2,0.2,1.7l4.9,5.8H24.4z"/>
		</g>
		<g>
			<path class="st1" d="M12.7,49.1H7.1c-0.4,0-0.8,0.4-0.8,0.8c0,0.4,0.4,0.8,0.8,0.8h7.3c0,0,0,0,0,0L12.7,49.1z"/>
		</g>
	</g>
	<g>
		<g>
			<polygon class="st0" points="19.5,43.7 10.5,43.7 15.4,49.5 24.4,49.5 			"/>
		</g>
		<g>
			<polygon class="st0" points="34.7,49.5 29.8,43.7 20.9,43.7 25.8,49.5 			"/>
		</g>
		<g>
			<polygon class="st0" points="45.1,49.5 40.2,43.7 31.2,43.7 36.1,49.5 			"/>
		</g>
		<g>
			<polygon class="st0" points="16.3,50.5 21.2,56.2 30.2,56.2 25.3,50.5 			"/>
		</g>
		<g>
			<path class="st1" d="M36.5,57.3H21c-0.2,0-0.3-0.1-0.4-0.2L9,43.5c-0.1-0.2-0.2-0.4-0.1-0.6c0.1-0.2,0.3-0.3,0.5-0.3h31.1
				c0.2,0,0.3,0.1,0.4,0.2l5.5,6.4h1.4l-6.1-7.1c-0.3-0.3-0.7-0.5-1.2-0.5H9.4c-0.6,0-1.2,0.4-1.4,0.9c-0.3,0.6-0.2,1.2,0.2,1.7
				l11.6,13.6c0.3,0.3,0.7,0.5,1.2,0.5h16.4L36.5,57.3z"/>
		</g>
		<g>
			<path class="st1" d="M36.7,57.5H12.8c-0.4,0-0.8,0.4-0.8,0.8s0.4,0.8,0.8,0.8h25.2L36.7,57.5z"/>
		</g>
		<g>
			<path class="st0" d="M31.9,51.8c-0.3-0.4-0.4-0.9-0.3-1.3h-4.9l4.9,5.7h4.1L31.9,51.8z"/>
		</g>
	</g>
	<g>
		<g>
			<polygon class="st0" points="53.6,43.7 44.6,43.7 49.5,49.5 58.5,49.5 			"/>
		</g>
		<g>
			<polygon class="st0" points="68.9,49.5 64,43.7 55,43.7 59.9,49.5 			"/>
		</g>
		<g>
			<polygon class="st0" points="79.2,49.5 74.3,43.7 65.3,43.7 70.2,49.5 			"/>
		</g>
		<g>
			<polygon class="st0" points="71.1,50.5 76.1,56.2 85,56.2 80.1,50.5 			"/>
		</g>
		<g>
			<polygon class="st0" points="70.8,56.2 74.7,56.2 69.8,50.5 65.9,50.5 			"/>
		</g>
		<g>
			<path class="st1" d="M87.4,55.7L75.7,42.2c-0.3-0.3-0.7-0.5-1.2-0.5H43.5c-0.6,0-1.2,0.4-1.4,0.9c-0.3,0.6-0.2,1.2,0.2,1.7l4.3,5
				H48l-4.9-5.7C43,43.4,42.9,43.2,43,43c0.1-0.2,0.3-0.3,0.5-0.3h31.1c0.2,0,0.3,0.1,0.4,0.2l11.6,13.6c0.1,0.2,0.2,0.4,0.1,0.6
				c-0.1,0.2-0.3,0.3-0.5,0.3H71.7l0.9,1h13.6c0.6,0,1.2-0.4,1.4-0.9C87.8,56.9,87.8,56.2,87.4,55.7z"/>
		</g>
		<g>
			<path class="st1" d="M92.9,57.5h-21l1.4,1.6h19.6c0.4,0,0.8-0.4,0.8-0.8S93.3,57.5,92.9,57.5z"/>
		</g>
	</g>
	<g>
		<g>
			<g>
				<polygon class="st0" points="43.2,51.3 34.2,51.3 39.1,57.1 48.1,57.1 				"/>
			</g>
			<g>
				<polygon class="st0" points="58.4,57.1 53.5,51.3 44.5,51.3 49.5,57.1 				"/>
			</g>
			<g>
				<polygon class="st0" points="68.8,57.1 63.9,51.3 54.9,51.3 59.8,57.1 				"/>
			</g>
			<g>
				<polygon class="st0" points="40,58.1 44.9,63.9 53.9,63.9 49,58.1 				"/>
			</g>
			<g>
				<polygon class="st0" points="60.7,58.1 65.6,63.9 74.6,63.9 69.7,58.1 				"/>
			</g>
			<g>
				<polygon class="st0" points="50.4,58.1 55.3,63.9 64.2,63.9 59.3,58.1 				"/>
			</g>
		</g>
		<g>
			<path class="st1" d="M76.9,63.4L65.3,49.8c-0.3-0.3-0.7-0.5-1.2-0.5H33.1c-0.6,0-1.2,0.4-1.4,0.9c-0.3,0.6-0.2,1.2,0.2,1.7
				l11.6,13.6c0.3,0.3,0.7,0.5,1.2,0.5h31.1c0.6,0,1.2-0.4,1.4-0.9C77.4,64.5,77.3,63.8,76.9,63.4z M76.2,64.6
				c-0.1,0.2-0.3,0.3-0.5,0.3H44.7c-0.2,0-0.3-0.1-0.4-0.2L32.7,51.2c-0.1-0.2-0.2-0.4-0.1-0.6c0.1-0.2,0.3-0.3,0.5-0.3h31.1
				c0.2,0,0.3,0.1,0.4,0.2l11.6,13.6C76.3,64.2,76.3,64.4,76.2,64.6z"/>
		</g>
		<g>
			<path class="st1" d="M82.4,66.7H32.9c-0.4,0-0.8-0.4-0.8-0.8s0.4-0.8,0.8-0.8h49.5c0.4,0,0.8,0.4,0.8,0.8S82.9,66.7,82.4,66.7z"
				/>
		</g>
	</g>
</g>
</svg>
