<?xml version="1.0" encoding="utf-8"?>
<!-- Generator: Adobe Illustrator 22.0.1, SVG Export Plug-In . SVG Version: 6.00 Build 0)  -->
<svg version="1.1" id="Lager_1" xmlns="http://www.w3.org/2000/svg" xmlns:xlink="http://www.w3.org/1999/xlink" x="0px" y="0px"
	 viewBox="0 0 540 338" style="enable-background:new 0 0 540 338;" xml:space="preserve">
<style type="text/css">
	.st0{fill:#0B6D8A;}
	.st1{fill:#F6DF69;}
	.st2{fill:#008041;}
	.st3{fill:#27A8B7;}
	.st4{fill:#F6922B;}
	.st5{fill:#EC6B20;}
	.st6{fill:#5E2C00;}
	.st7{fill:#00405D;}
	.st8{fill:#006C32;}
	.st9{fill:#01473D;}
	.st10{fill:#F3E85C;}
	.st11{fill:#87CDCE;}
	.st12{fill:#341100;}
	.st13{fill:#CBD6E2;}
	.st14{fill:#39C1F1;}
	.st15{fill:none;}
	.st16{fill:#FFDD00;}
	.st17{fill:#F5EC88;}
	.st18{fill:#FFFBEB;}
</style>
<path class="st0" d="M42.9,145c-14.1,0-19.5,1.9-19.5,12.7s10.2,13.7,20.3,13.7s151-5.1,174.9,15.1c29.2,24.7,71.3,26.7,83.5,22.5
	c45.7-15.8-49.1-35-57.7-49.1s23.3-13.6-98.7-14.2"/>
<circle class="st1" cx="199" cy="112.8" r="14.5"/>
<ellipse class="st1" cx="229.8" cy="102" rx="20" ry="16.7"/>
<path class="st2" d="M138.8,126.6c0-3.6-2.9-13.6-6.5-13.6s-6.5,10-6.5,13.6c0,3.6,2.9,6.5,6.5,6.5S138.8,130.2,138.8,126.6z"/>
<path class="st2" d="M124,126.6c0-3.6-2.9-13.6-6.5-13.6s-6.5,10-6.5,13.6c0,3.6,2.9,6.5,6.5,6.5S124,130.2,124,126.6z"/>
<path class="st3" d="M496.4,157.2c0,0,12.5,36.2-62.5,36.2c-33.2,0-87,2.1-87.3,5.2c-0.3,3.4,12.2,3.7,29.2,3.7
	c15.2,0,26.5,6.5,39,5.1c68.3-7.9,57.8,15.4,41.3,11.4c-27.8-6.8-35.5,16.2-64.8,18.1c-35,2.3-61.5,0.8-77.8-7
	c-39.6-19.1,36.3-33.1-30.2-33.1s-55-44-55-44L496.4,157.2z"/>
<g>
	<polygon class="st4" points="421.9,60.2 456.7,60.2 451.8,67.3 417,66.8 	"/>
	<rect x="417.3" y="66.8" class="st5" width="35" height="14.9"/>
	<rect x="417.3" y="82.2" class="st1" width="35" height="48.5"/>
	<polygon class="st6" points="456.7,60.2 461.5,66.8 461.5,130.2 452.4,130.8 452.3,66.8 	"/>
</g>
<g>
	<path class="st0" d="M496.1,160.6H195.3c-3.9,0-7-3.1-7-7s3.1-7,7-7h300.9c3.9,0,7,3.1,7,7S500,160.6,496.1,160.6z"/>
</g>
<g>
	<path class="st7" d="M506.6,160.6H396.2c-4.2,0-7.7-3.4-7.7-7.7s3.4-7.7,7.7-7.7h110.4c4.2,0,7.7,3.4,7.7,7.7
		S510.8,160.6,506.6,160.6z"/>
</g>
<g>
	<path class="st0" d="M505.4,147h-395c-3.9,0-7-3.1-7-7s3.1-7,7-7h395c3.9,0,7,3.1,7,7S509.3,147,505.4,147z"/>
</g>
<g>
	<path class="st8" d="M509.5,132.4H174.7c-3.6,0-6.5-3.8-6.5-8.5s2.9-8.5,6.5-8.5h334.8c3.6,0,6.5,3.8,6.5,8.5
		S513.1,132.4,509.5,132.4z"/>
</g>
<g>
	<path class="st1" d="M516.3,121.6H206c-3.1,0-5.7-4-5.7-8.9c0-4.9,2.5-8.9,5.7-8.9h310.3c3.1,0,5.7,4,5.7,8.9
		C522,117.6,519.5,121.6,516.3,121.6z"/>
</g>
<g>
	<rect x="258.1" y="113.5" class="st7" width="115.9" height="33.4"/>
</g>
<g>
	<rect x="362.5" y="114.3" class="st7" width="159.8" height="32.6"/>
</g>
<g>
	<path class="st0" d="M427.2,174.1H261.3c-3.9,0-7-3.1-7-7s3.1-7,7-7h165.8c3.9,0,7,3.1,7,7S431,174.1,427.2,174.1z"/>
</g>
<g>
	<path class="st3" d="M389.9,160.5h-39.5c-1.7,0-3.1-1.4-3.1-3.1s1.4-3.1,3.1-3.1h39.5c1.7,0,3.1,1.4,3.1,3.1
		S391.7,160.5,389.9,160.5z"/>
</g>
<g>
	<rect x="174" y="127.1" class="st9" width="74.1" height="6.3"/>
</g>
<g>
	<polygon class="st1" points="274.9,106.6 266,106.6 270.4,97.8 	"/>
</g>
<g>
	<polygon class="st7" points="386.2,39.9 427.8,39.9 440,54.4 440,54.4 440,54.4 440,120.6 374,120.6 374,54.4 	"/>
</g>
<g>
	<polygon class="st4" points="374.1,54.2 415.7,54.2 427.9,39.8 386.2,39.8 	"/>
</g>
<g>
	<rect x="374" y="54.2" class="st1" width="41.7" height="66.3"/>
</g>
<g>
	<g>
		<g>
			<g>
				<polygon class="st10" points="405.5,41.2 399.1,41.2 389.9,52.1 396.3,52.1 				"/>
				<path class="st4" d="M396.3,52.4h-6.4l-0.3-0.6l9.1-10.9l0.3-0.1h6.4l0.3,0.6l-9.1,10.9L396.3,52.4z M390.7,51.7h5.5l8.6-10.2
					h-5.5L390.7,51.7z"/>
			</g>
			<g>
				<line class="st11" x1="399.4" y1="48.5" x2="393" y2="48.5"/>
				<rect x="393" y="48.1" class="st4" width="6.4" height="0.7"/>
			</g>
			<g>
				<line class="st11" x1="402.4" y1="44.8" x2="396" y2="44.8"/>
				<rect x="396" y="44.5" class="st4" width="6.4" height="0.7"/>
			</g>
		</g>
		<g>
			<g>
				<polygon class="st10" points="399.2,41.2 392.8,41.2 383.7,52.1 390.1,52.1 				"/>
				<path class="st4" d="M390.1,52.4h-6.4l-0.3-0.6l9.1-10.9l0.3-0.1h6.4l0.3,0.6l-9.1,10.9L390.1,52.4z M384.4,51.7h5.5l8.6-10.2
					H393L384.4,51.7z"/>
			</g>
			<g>
				<line class="st11" x1="393.1" y1="48.5" x2="386.7" y2="48.5"/>
				<rect x="386.7" y="48.1" class="st4" width="6.4" height="0.7"/>
			</g>
			<g>
				<line class="st11" x1="396.2" y1="44.8" x2="389.7" y2="44.8"/>
				<rect x="389.7" y="44.5" class="st4" width="6.4" height="0.7"/>
			</g>
		</g>
		<g>
			<g>
				<polygon class="st10" points="392.9,41.2 386.5,41.2 377.4,52.1 383.8,52.1 				"/>
				<path class="st4" d="M383.8,52.4h-6.4l-0.3-0.6l9.1-10.9l0.3-0.1h6.4l0.3,0.6l-9.1,10.9L383.8,52.4z M378.2,51.7h5.5l8.6-10.2
					h-5.5L378.2,51.7z"/>
			</g>
			<g>
				<line class="st11" x1="386.9" y1="48.5" x2="380.5" y2="48.5"/>
				<rect x="380.5" y="48.1" class="st4" width="6.4" height="0.7"/>
			</g>
			<g>
				<line class="st11" x1="389.9" y1="44.8" x2="383.5" y2="44.8"/>
				<rect x="383.5" y="44.5" class="st4" width="6.4" height="0.7"/>
			</g>
		</g>
	</g>
	<g>
		<g>
			<g>
				<polygon class="st10" points="424,41.2 417.6,41.2 408.4,52.1 414.8,52.1 				"/>
				<path class="st4" d="M414.8,52.4h-6.4l-0.3-0.6l9.1-10.9l0.3-0.1h6.4l0.3,0.6l-9.1,10.9L414.8,52.4z M409.2,51.7h5.5l8.6-10.2
					h-5.5L409.2,51.7z"/>
			</g>
			<g>
				<line class="st11" x1="417.9" y1="48.5" x2="411.5" y2="48.5"/>
				<rect x="411.5" y="48.1" class="st4" width="6.4" height="0.7"/>
			</g>
			<g>
				<line class="st11" x1="420.9" y1="44.8" x2="414.5" y2="44.8"/>
				<rect x="414.5" y="44.5" class="st4" width="6.4" height="0.7"/>
			</g>
		</g>
		<g>
			<g>
				<polygon class="st10" points="417.7,41.2 411.3,41.2 402.2,52.1 408.6,52.1 				"/>
				<path class="st4" d="M408.6,52.4h-6.4l-0.3-0.6L411,41l0.3-0.1h6.4l0.3,0.6l-9.1,10.9L408.6,52.4z M402.9,51.7h5.5l8.6-10.2
					h-5.5L402.9,51.7z"/>
			</g>
			<g>
				<line class="st11" x1="411.6" y1="48.5" x2="405.2" y2="48.5"/>
				<rect x="405.2" y="48.1" class="st4" width="6.4" height="0.7"/>
			</g>
			<g>
				<line class="st11" x1="414.6" y1="44.8" x2="408.2" y2="44.8"/>
				<rect x="408.2" y="44.5" class="st4" width="6.4" height="0.7"/>
			</g>
		</g>
		<g>
			<g>
				<polygon class="st10" points="411.4,41.2 405,41.2 395.9,52.1 402.3,52.1 				"/>
				<path class="st4" d="M402.3,52.4h-6.4l-0.3-0.6l9.1-10.9l0.3-0.1h6.4l0.3,0.6l-9.1,10.9L402.3,52.4z M396.7,51.7h5.5l8.6-10.2
					h-5.5L396.7,51.7z"/>
			</g>
			<g>
				<line class="st11" x1="405.4" y1="48.5" x2="399" y2="48.5"/>
				<rect x="399" y="48.1" class="st4" width="6.4" height="0.7"/>
			</g>
			<g>
				<line class="st11" x1="408.4" y1="44.8" x2="402" y2="44.8"/>
				<rect x="402" y="44.5" class="st4" width="6.4" height="0.7"/>
			</g>
		</g>
	</g>
</g>
<g>
	<rect x="379.1" y="61" class="st4" width="30.4" height="5.9"/>
</g>
<g>
	<rect x="379.1" y="72.5" class="st4" width="30.4" height="5.9"/>
</g>
<g>
	<rect x="379.1" y="84" class="st4" width="30.4" height="5.9"/>
</g>
<g>
	<rect x="379.1" y="95.5" class="st4" width="30.4" height="5.9"/>
</g>
<g>
	<rect x="379.1" y="107" class="st4" width="30.4" height="5.9"/>
</g>
<g>
	
		<rect x="425.3" y="61" transform="matrix(-1 -4.565027e-11 4.565027e-11 -1 856.5638 127.8424)" class="st0" width="5.9" height="5.9"/>
</g>
<g>
	
		<rect x="453.3" y="84" transform="matrix(-1 -1.397737e-10 1.397737e-10 -1 908.5555 173.882)" class="st12" width="1.9" height="5.9"/>
</g>
<g>
	
		<rect x="456" y="84" transform="matrix(-1 -1.397737e-10 1.397737e-10 -1 913.8812 173.882)" class="st12" width="1.9" height="5.9"/>
</g>
<g>
	
		<rect x="458.6" y="84" transform="matrix(-1 -1.397737e-10 1.397737e-10 -1 919.0784 173.882)" class="st12" width="1.9" height="5.9"/>
</g>
<g>
	
		<rect x="453.3" y="77.1" transform="matrix(-1 -1.446609e-10 1.446609e-10 -1 908.5555 160.1065)" class="st12" width="1.9" height="5.9"/>
</g>
<g>
	
		<rect x="456" y="77.1" transform="matrix(-1 -1.446609e-10 1.446609e-10 -1 913.8812 160.1065)" class="st12" width="1.9" height="5.9"/>
</g>
<g>
	
		<rect x="458.6" y="77.1" transform="matrix(-1 -1.446609e-10 1.446609e-10 -1 919.0784 160.1065)" class="st12" width="1.9" height="5.9"/>
</g>
<g>
	
		<rect x="453.3" y="91.1" transform="matrix(-1 -1.446609e-10 1.446609e-10 -1 908.5555 188.1092)" class="st12" width="1.9" height="5.9"/>
</g>
<g>
	
		<rect x="456" y="91.1" transform="matrix(-1 -1.446609e-10 1.446609e-10 -1 913.8812 188.1092)" class="st12" width="1.9" height="5.9"/>
</g>
<g>
	
		<rect x="458.6" y="91.1" transform="matrix(-1 -1.446609e-10 1.446609e-10 -1 919.0784 188.1092)" class="st0" width="1.9" height="5.9"/>
</g>
<g>
	
		<rect x="425.3" y="72.5" transform="matrix(-1 -4.565027e-11 4.565027e-11 -1 856.5638 150.8816)" class="st0" width="5.9" height="5.9"/>
</g>
<g>
	
		<rect x="425.3" y="84" transform="matrix(-1 -4.565027e-11 4.565027e-11 -1 856.5638 173.9208)" class="st0" width="5.9" height="5.9"/>
</g>
<g>
	
		<rect x="425.3" y="95.5" transform="matrix(-1 -4.565027e-11 4.565027e-11 -1 856.5638 196.9601)" class="st3" width="5.9" height="5.9"/>
</g>
<g>
	
		<rect x="425.3" y="107" transform="matrix(-1 -4.381219e-11 4.381219e-11 -1 856.5638 219.9993)" class="st3" width="5.9" height="5.9"/>
</g>
<g>
	<path class="st7" d="M386,117.8c0-3.6-2.9-13.6-6.5-13.6s-6.5,10-6.5,13.6s2.9,6.5,6.5,6.5S386,121.4,386,117.8z"/>
</g>
<g>
	<path class="st7" d="M375.2,117.8c0-3.6-2.9-13.6-6.5-13.6s-6.5,10-6.5,13.6s2.9,6.5,6.5,6.5S375.2,121.4,375.2,117.8z"/>
</g>
<g>
	<polygon class="st1" points="510.7,76.7 469.1,76.7 456.9,91.2 456.9,91.2 456.9,91.2 456.9,116.6 522.9,116.6 522.9,91.2 	"/>
</g>
<g>
	<rect x="460.8" y="94.5" class="st4" width="5.9" height="5.9"/>
</g>
<g>
	<rect x="440.8" y="72.2" class="st13" width="5.9" height="5.9"/>
</g>
<g>
	<rect x="471.3" y="94.5" class="st4" width="5.9" height="5.9"/>
</g>
<g>
	<polygon class="st5" points="522.8,91.1 481.2,91.1 469,76.6 510.7,76.6 	"/>
</g>
<g>
	<g>
		<g>
			<polygon class="st10" points="474.2,77.3 480.6,77.3 489.8,88.2 483.4,88.2 			"/>
			<path class="st4" d="M489.8,88.5h-6.4l-0.3-0.1L474,77.5l0.3-0.6h6.4l0.3,0.1l9.1,10.9L489.8,88.5z M483.5,87.8h5.5l-8.6-10.2
				H475L483.5,87.8z"/>
		</g>
		<g>
			<line class="st11" x1="480.3" y1="84.5" x2="486.7" y2="84.5"/>
			<rect x="480.3" y="84.2" class="st4" width="6.4" height="0.7"/>
		</g>
		<g>
			<line class="st11" x1="477.3" y1="80.9" x2="483.7" y2="80.9"/>
			<rect x="477.3" y="80.5" class="st4" width="6.4" height="0.7"/>
		</g>
	</g>
	<g>
		<g>
			<polygon class="st10" points="480.5,77.3 486.9,77.3 496.1,88.2 489.7,88.2 			"/>
			<path class="st4" d="M496.1,88.5h-6.4l-0.3-0.1l-9.1-10.9l0.3-0.6h6.4l0.3,0.1l9.1,10.9L496.1,88.5z M489.8,87.8h5.5l-8.6-10.2
				h-5.5L489.8,87.8z"/>
		</g>
		<g>
			<line class="st11" x1="486.6" y1="84.5" x2="493" y2="84.5"/>
			<rect x="486.6" y="84.2" class="st4" width="6.4" height="0.7"/>
		</g>
		<g>
			<line class="st11" x1="483.6" y1="80.9" x2="490" y2="80.9"/>
			<rect x="483.6" y="80.5" class="st4" width="6.4" height="0.7"/>
		</g>
	</g>
	<g>
		<g>
			<polygon class="st10" points="486.8,77.3 493.2,77.3 502.3,88.2 495.9,88.2 			"/>
			<path class="st4" d="M502.3,88.5h-6.4l-0.3-0.1l-9.1-10.9l0.3-0.6h6.4l0.3,0.1l9.1,10.9L502.3,88.5z M496.1,87.8h5.5L493,77.6
				h-5.5L496.1,87.8z"/>
		</g>
		<g>
			<line class="st11" x1="492.9" y1="84.5" x2="499.3" y2="84.5"/>
			<rect x="492.9" y="84.2" class="st4" width="6.4" height="0.7"/>
		</g>
		<g>
			<line class="st11" x1="489.8" y1="80.9" x2="496.2" y2="80.9"/>
			<rect x="489.8" y="80.5" class="st4" width="6.4" height="0.7"/>
		</g>
	</g>
</g>
<g>
	<rect x="481.2" y="91.1" class="st7" width="41.7" height="25.6"/>
</g>
<g>
	<rect x="502.4" y="73.9" class="st5" width="6.1" height="6.1"/>
</g>
<g>
	<polygon class="st10" points="505.4,80 502.4,76.6 502.4,73.9 505.4,73.9 	"/>
</g>
<g>
	<g>
		<polygon class="st4" points="344.5,53.8 333.2,53.8 331.4,124.6 346.3,124.6 		"/>
	</g>
	<g>
		<polygon class="st1" points="288.5,80.2 270.5,90.7 270.5,117.2 340,117.2 340,80.2 		"/>
	</g>
	<g>
		<g>
			<g>
				<polygon class="st11" points="300.4,81.7 293.9,81.7 281.6,88.9 288,88.9 				"/>
				<path class="st1" d="M288,89.3h-6.4l-0.2-0.7l12.3-7.3l0.2,0h6.4l0.2,0.7l-12.3,7.3L288,89.3z M282.9,88.6h5l11.2-6.6h-5
					L282.9,88.6z"/>
			</g>
			<g>
				<line class="st11" x1="288.2" y1="88.9" x2="281.8" y2="88.9"/>
				<rect x="281.8" y="88.6" class="st1" width="6.4" height="0.7"/>
			</g>
			<g>
				<line class="st11" x1="294.3" y1="85.3" x2="287.9" y2="85.3"/>
				<rect x="287.9" y="85" class="st1" width="6.4" height="0.7"/>
			</g>
		</g>
		<g>
			<g>
				<polygon class="st11" points="294.1,81.7 287.7,81.7 275.5,88.9 281.9,88.9 				"/>
				<path class="st1" d="M281.9,89.3h-6.4l-0.2-0.6l12.2-7.3l0.2,0h6.4l0.2,0.6l-12.2,7.3L281.9,89.3z M276.7,88.6h5l11-6.6h-5
					L276.7,88.6z"/>
			</g>
			<g>
				<line class="st11" x1="281.9" y1="88.9" x2="275.5" y2="88.9"/>
				<rect x="275.5" y="88.6" class="st1" width="6.4" height="0.7"/>
			</g>
			<g>
				<line class="st11" x1="288" y1="85.3" x2="281.6" y2="85.3"/>
				<rect x="281.6" y="85" class="st1" width="6.4" height="0.7"/>
			</g>
		</g>
	</g>
	<g>
		<g>
			<g>
				<polygon class="st11" points="317.2,81.7 310.8,81.7 298.5,88.9 304.9,88.9 				"/>
				<path class="st1" d="M304.9,89.3h-6.4l-0.2-0.7l12.3-7.3l0.2,0h6.4l0.2,0.7l-12.3,7.3L304.9,89.3z M299.8,88.6h5l11.2-6.6h-5
					L299.8,88.6z"/>
			</g>
			<g>
				<line class="st11" x1="305" y1="88.9" x2="298.6" y2="88.9"/>
				<rect x="298.6" y="88.6" class="st1" width="6.4" height="0.7"/>
			</g>
			<g>
				<line class="st11" x1="311.1" y1="85.3" x2="304.7" y2="85.3"/>
				<rect x="304.7" y="85" class="st1" width="6.4" height="0.7"/>
			</g>
		</g>
		<g>
			<g>
				<polygon class="st11" points="310.9,81.7 304.5,81.7 292.4,88.9 298.8,88.9 				"/>
				<path class="st1" d="M298.8,89.3h-6.4l-0.2-0.6l12.2-7.3l0.2,0h6.4l0.2,0.6l-12.2,7.3L298.8,89.3z M293.6,88.6h5l11-6.6h-5
					L293.6,88.6z"/>
			</g>
			<g>
				<line class="st11" x1="298.8" y1="88.9" x2="292.4" y2="88.9"/>
				<rect x="292.4" y="88.6" class="st1" width="6.4" height="0.7"/>
			</g>
			<g>
				<line class="st11" x1="304.8" y1="85.3" x2="298.4" y2="85.3"/>
				<rect x="298.4" y="85" class="st1" width="6.4" height="0.7"/>
			</g>
		</g>
	</g>
	<g>
		<g>
			<g>
				<polygon class="st11" points="334.5,82 328.1,82 315.8,89.3 322.2,89.3 				"/>
				<path class="st1" d="M322.2,89.6h-6.4l-0.2-0.7l12.3-7.3l0.2,0h6.4l0.2,0.7l-12.3,7.3L322.2,89.6z M317.1,88.9h5l11.2-6.6h-5
					L317.1,88.9z"/>
			</g>
			<g>
				<line class="st11" x1="322.4" y1="89.3" x2="316" y2="89.3"/>
				<rect x="316" y="88.9" class="st1" width="6.4" height="0.7"/>
			</g>
			<g>
				<line class="st11" x1="328.5" y1="85.7" x2="322.1" y2="85.7"/>
				<rect x="322.1" y="85.3" class="st1" width="6.4" height="0.7"/>
			</g>
		</g>
		<g>
			<g>
				<polygon class="st11" points="328.3,82 321.9,82 309.7,89.3 316.1,89.3 				"/>
				<path class="st1" d="M316.1,89.6h-6.4l-0.2-0.6l12.2-7.3l0.2,0h6.4l0.2,0.6l-12.2,7.3L316.1,89.6z M310.9,88.9h5l11-6.6h-5
					L310.9,88.9z"/>
			</g>
			<g>
				<line class="st11" x1="316.1" y1="89.3" x2="309.7" y2="89.3"/>
				<rect x="309.7" y="88.9" class="st1" width="6.4" height="0.7"/>
			</g>
			<g>
				<line class="st11" x1="322.2" y1="85.7" x2="315.8" y2="85.7"/>
				<rect x="315.8" y="85.3" class="st1" width="6.4" height="0.7"/>
			</g>
		</g>
	</g>
	<g>
		<rect x="270.5" y="90.7" class="st14" width="16.2" height="33.9"/>
	</g>
	<g>
		<polygon class="st0" points="340,80.2 322.4,90.5 322.4,80.2 304.7,90.5 304.7,80.2 286.7,90.7 286.7,124.6 342.2,124.6 
			342.2,80.2 		"/>
	</g>
	<g>
		
			<rect x="293.1" y="103.1" transform="matrix(-1 -6.740310e-11 6.740310e-11 -1 592.1381 215.2041)" class="st3" width="5.9" height="8.9"/>
	</g>
	<g>
		
			<rect x="309.9" y="103.1" transform="matrix(-1 -6.740310e-11 6.740310e-11 -1 625.6497 215.2041)" class="st3" width="5.9" height="8.9"/>
	</g>
	<g>
		
			<rect x="327.1" y="103.1" transform="matrix(-1 -6.740310e-11 6.740310e-11 -1 660.2249 215.2041)" class="st3" width="5.9" height="8.9"/>
	</g>
</g>
<g>
	<g>
		<rect x="446.1" y="116.7" class="st3" width="42.6" height="22.2"/>
	</g>
	<g>
		<polygon class="st0" points="488.7,116.7 441.7,116.7 428.1,100.4 475,100.4 		"/>
	</g>
	<g>
		<circle class="st1" cx="435.3" cy="94.5" r="12.5"/>
	</g>
	<g>
		<path class="st3" d="M435.3,82c-0.6,0-1.2,0-1.8,0.1c4.6,0.9,8.1,6.1,8.1,12.4s-3.5,11.5-8.1,12.4c0.6,0.1,1.2,0.1,1.8,0.1
			c6.9,0,12.5-5.6,12.5-12.5S442.2,82,435.3,82z"/>
	</g>
	<g>
		<rect x="422.8" y="94.5" class="st3" width="25" height="44.4"/>
	</g>
	<g>
		<g>
			<g>
				<polygon class="st11" points="449.7,102.5 456.2,102.5 465.5,113.5 459,113.5 				"/>
				<path class="st0" d="M465.5,113.9H459l-0.3-0.1l-9.3-11.1l0.3-0.6h6.5l0.3,0.1l9.3,11.1L465.5,113.9z M459.2,113.2h5.6
					l-8.7-10.4h-5.6L459.2,113.2z"/>
			</g>
			<g>
				<line class="st11" x1="455.9" y1="109.8" x2="462.4" y2="109.8"/>
				<rect x="455.9" y="109.5" class="st0" width="6.5" height="0.7"/>
			</g>
			<g>
				<line class="st11" x1="452.8" y1="106.1" x2="459.3" y2="106.1"/>
				<rect x="452.8" y="105.8" class="st0" width="6.5" height="0.7"/>
			</g>
		</g>
		<g>
			<g>
				<polygon class="st11" points="456.1,102.5 462.6,102.5 471.9,113.5 465.4,113.5 				"/>
				<path class="st0" d="M471.9,113.9h-6.5l-0.3-0.1l-9.3-11.1l0.3-0.6h6.5l0.3,0.1l9.3,11.1L471.9,113.9z M465.6,113.2h5.6
					l-8.7-10.4h-5.6L465.6,113.2z"/>
			</g>
			<g>
				<line class="st11" x1="462.3" y1="109.8" x2="468.8" y2="109.8"/>
				<rect x="462.3" y="109.5" class="st0" width="6.5" height="0.7"/>
			</g>
			<g>
				<line class="st11" x1="459.2" y1="106.1" x2="465.7" y2="106.1"/>
				<rect x="459.2" y="105.8" class="st0" width="6.5" height="0.7"/>
			</g>
		</g>
		<g>
			<g>
				<polygon class="st11" points="462.5,102.5 469,102.5 478.2,113.5 471.7,113.5 				"/>
				<path class="st0" d="M478.2,113.9h-6.5l-0.3-0.1l-9.3-11.1l0.3-0.6h6.5l0.3,0.1l9.3,11.1L478.2,113.9z M471.9,113.2h5.6
					l-8.7-10.4h-5.6L471.9,113.2z"/>
			</g>
			<g>
				<line class="st11" x1="468.6" y1="109.8" x2="475.1" y2="109.8"/>
				<rect x="468.6" y="109.5" class="st0" width="6.5" height="0.7"/>
			</g>
			<g>
				<line class="st11" x1="465.5" y1="106.1" x2="472.1" y2="106.1"/>
				<rect x="465.5" y="105.8" class="st0" width="6.5" height="0.7"/>
			</g>
		</g>
	</g>
	<g>
		
			<rect x="471.4" y="121.8" transform="matrix(-1 -4.534385e-11 4.534385e-11 -1 948.7324 249.5993)" class="st7" width="5.9" height="5.9"/>
	</g>
	<g>
		
			<rect x="460.9" y="121.8" transform="matrix(-1 -4.534385e-11 4.534385e-11 -1 927.7876 249.5993)" class="st7" width="5.9" height="5.9"/>
	</g>
</g>
<g>
	<polygon class="st2" points="223.6,146.9 210.7,146.9 217.2,126.8 	"/>
</g>
<g>
	<polygon class="st8" points="209.3,146.9 196.4,146.9 202.8,126.8 	"/>
</g>
<g>
	<g>
		<rect x="161.2" y="99.5" class="st0" width="4.6" height="4.6"/>
	</g>
	<g>
		<polygon class="st11" points="163.5,104.1 161.2,101.5 161.2,99.5 163.5,99.5 		"/>
	</g>
	<g>
		<polygon class="st1" points="168.2,101.9 143.7,101.9 134.1,113.3 134.1,113.3 134.1,113.3 134.1,133.3 177.8,133.3 177.8,113.3 
					"/>
	</g>
	<g>
		<polygon class="st0" points="177.8,113.2 153.2,113.2 143.7,101.8 168.2,101.8 		"/>
	</g>
	<g>
		<rect x="153.2" y="113.2" class="st14" width="24.6" height="20.1"/>
	</g>
	<g>
		<rect x="140.7" y="116.3" class="st14" width="5.9" height="5.9"/>
	</g>
	<g>
		<g>
			<g>
				<polygon class="st11" points="151.3,102.9 157.7,102.9 163.9,110.2 157.5,110.2 				"/>
				<path class="st0" d="M163.9,110.6h-6.4l-0.3-0.1l-6.2-7.3l0.3-0.6h6.4l0.3,0.1l6.2,7.3L163.9,110.6z M157.7,109.9h5.5l-5.6-6.6
					H152L157.7,109.9z"/>
			</g>
			<g>
				<line class="st11" x1="157.4" y1="110.2" x2="163.8" y2="110.2"/>
				<rect x="157.4" y="109.9" class="st0" width="6.4" height="0.7"/>
			</g>
			<g>
				<line class="st11" x1="154.3" y1="106.6" x2="160.7" y2="106.6"/>
				<rect x="154.3" y="106.2" class="st0" width="6.4" height="0.7"/>
			</g>
		</g>
		<g>
			<g>
				<polygon class="st11" points="157.6,102.9 164,102.9 170.1,110.2 163.7,110.2 				"/>
				<path class="st0" d="M170.1,110.6h-6.4l-0.3-0.1l-6.1-7.3l0.3-0.6h6.4l0.3,0.1l6.1,7.3L170.1,110.6z M163.8,109.9h5.5l-5.5-6.6
					h-5.5L163.8,109.9z"/>
			</g>
			<g>
				<line class="st11" x1="163.7" y1="110.2" x2="170.1" y2="110.2"/>
				<rect x="163.7" y="109.9" class="st0" width="6.4" height="0.7"/>
			</g>
			<g>
				<line class="st11" x1="160.6" y1="106.6" x2="167" y2="106.6"/>
				<rect x="160.6" y="106.2" class="st0" width="6.4" height="0.7"/>
			</g>
		</g>
	</g>
</g>
<g>
	<g>
		<rect x="225.1" y="112.3" class="st11" width="48.9" height="34.6"/>
	</g>
	<g>
		<rect x="222.9" y="111.3" class="st0" width="55.1" height="2.5"/>
	</g>
	<g>
		<polygon class="st0" points="275.8,124.8 275.8,113.1 257.4,113.1 257.4,146.9 268.4,146.9 275.8,146.9 282.8,146.9 282.8,124.8 
					"/>
	</g>
	<g>
		<g>
			<g>
				<polygon class="st1" points="227.4,111.4 233.9,111.4 237,107.7 230.5,107.7 				"/>
				<path class="st0" d="M233.9,111.8h-6.5l-0.3-0.6l3.1-3.7l0.3-0.1h6.5l0.3,0.6l-3.1,3.7L233.9,111.8z M228.2,111.1h5.6l2.5-3
					h-5.6L228.2,111.1z"/>
			</g>
			<g>
				<line class="st1" x1="227.4" y1="111.4" x2="233.9" y2="111.4"/>
				<rect x="227.4" y="111.1" class="st0" width="6.5" height="0.7"/>
			</g>
		</g>
		<g>
			<g>
				<polygon class="st1" points="233.8,111.4 240.3,111.4 243.4,107.7 236.9,107.7 				"/>
				<path class="st0" d="M240.3,111.8h-6.5l-0.3-0.6l3.1-3.7l0.3-0.1h6.5l0.3,0.6l-3.1,3.7L240.3,111.8z M234.6,111.1h5.6l2.5-3
					h-5.6L234.6,111.1z"/>
			</g>
			<g>
				<line class="st1" x1="233.8" y1="111.4" x2="240.3" y2="111.4"/>
				<rect x="233.8" y="111.1" class="st0" width="6.5" height="0.7"/>
			</g>
		</g>
		<g>
			<g>
				<polygon class="st1" points="240.2,111.4 246.7,111.4 249.8,107.7 243.3,107.7 				"/>
				<path class="st0" d="M246.7,111.8h-6.5l-0.3-0.6l3.1-3.7l0.3-0.1h6.5l0.3,0.6l-3.1,3.7L246.7,111.8z M240.9,111.1h5.6l2.5-3
					h-5.6L240.9,111.1z"/>
			</g>
			<g>
				<line class="st1" x1="240.2" y1="111.4" x2="246.7" y2="111.4"/>
				<rect x="240.2" y="111.1" class="st0" width="6.5" height="0.7"/>
			</g>
		</g>
	</g>
	<g>
		<polygon class="st0" points="249.8,107.7 249.8,112.3 246.4,112.3 		"/>
	</g>
	<g>
		<rect x="249.5" y="107.4" class="st11" width="7.9" height="39.5"/>
	</g>
	<g>
		
			<rect x="240.9" y="120.2" transform="matrix(-1 -4.534385e-11 4.534385e-11 -1 487.7118 246.28)" class="st0" width="5.9" height="5.9"/>
	</g>
	<g>
		
			<rect x="230.4" y="120.2" transform="matrix(-1 -4.534385e-11 4.534385e-11 -1 466.767 246.28)" class="st0" width="5.9" height="5.9"/>
	</g>
	<g>
		
			<rect x="264.2" y="120.2" transform="matrix(-1 -4.565027e-11 4.565027e-11 -1 534.3001 246.28)" class="st3" width="5.9" height="5.9"/>
	</g>
</g>
<g>
	<path class="st3" d="M450,154c0-3.6-2.9-13.6-6.5-13.6s-6.5,10-6.5,13.6s2.9,6.5,6.5,6.5S450,157.6,450,154z"/>
</g>
<g>
	<path class="st3" d="M464.3,154c0-3.6-2.9-13.6-6.5-13.6s-6.5,10-6.5,13.6s2.9,6.5,6.5,6.5S464.3,157.6,464.3,154z"/>
</g>
<g>
	<path class="st3" d="M478.7,154c0-3.6-2.9-13.6-6.5-13.6s-6.5,10-6.5,13.6s2.9,6.5,6.5,6.5S478.7,157.6,478.7,154z"/>
</g>
<g>
	<g>
		<polygon class="st0" points="385.5,120.5 427.2,120.5 439.3,135 439.3,135 439.3,135 439.3,160.4 373.4,160.4 373.4,135 		"/>
	</g>
	<g>
		<polygon class="st1" points="373.4,134.8 415,134.8 427.2,120.4 385.5,120.4 		"/>
	</g>
	<g>
		<g>
			<g>
				<polygon class="st11" points="415.8,121 409.4,121 400.3,131.9 406.7,131.9 				"/>
				<path class="st1" d="M406.7,132.3h-6.4l-0.3-0.6l9.1-10.9l0.3-0.1h6.4l0.3,0.6l-9.1,10.9L406.7,132.3z M401,131.6h5.5l8.6-10.2
					h-5.5L401,131.6z"/>
			</g>
			<g>
				<line class="st11" x1="409.7" y1="128.3" x2="403.3" y2="128.3"/>
				<rect x="403.3" y="127.9" class="st1" width="6.4" height="0.7"/>
			</g>
			<g>
				<line class="st11" x1="412.8" y1="124.7" x2="406.4" y2="124.7"/>
				<rect x="406.4" y="124.3" class="st1" width="6.4" height="0.7"/>
			</g>
		</g>
		<g>
			<g>
				<polygon class="st11" points="409.5,121 403.1,121 394,131.9 400.4,131.9 				"/>
				<path class="st1" d="M400.4,132.3H394l-0.3-0.6l9.1-10.9l0.3-0.1h6.4l0.3,0.6l-9.1,10.9L400.4,132.3z M394.7,131.6h5.5l8.6-10.2
					h-5.5L394.7,131.6z"/>
			</g>
			<g>
				<line class="st11" x1="403.4" y1="128.3" x2="397" y2="128.3"/>
				<rect x="397" y="127.9" class="st1" width="6.4" height="0.7"/>
			</g>
			<g>
				<line class="st11" x1="406.5" y1="124.7" x2="400.1" y2="124.7"/>
				<rect x="400.1" y="124.3" class="st1" width="6.4" height="0.7"/>
			</g>
		</g>
		<g>
			<g>
				<polygon class="st11" points="403.3,121 396.9,121 387.7,131.9 394.1,131.9 				"/>
				<path class="st1" d="M394.1,132.3h-6.4l-0.3-0.6l9.1-10.9l0.3-0.1h6.4l0.3,0.6l-9.1,10.9L394.1,132.3z M388.5,131.6h5.5
					l8.6-10.2H397L388.5,131.6z"/>
			</g>
			<g>
				<line class="st11" x1="397.2" y1="128.3" x2="390.8" y2="128.3"/>
				<rect x="390.8" y="127.9" class="st1" width="6.4" height="0.7"/>
			</g>
			<g>
				<line class="st11" x1="400.2" y1="124.7" x2="393.8" y2="124.7"/>
				<rect x="393.8" y="124.3" class="st1" width="6.4" height="0.7"/>
			</g>
		</g>
	</g>
	<g>
		
			<rect x="373.4" y="134.8" transform="matrix(-1 -4.486645e-11 4.486645e-11 -1 788.3993 295.2208)" class="st11" width="41.7" height="25.6"/>
	</g>
	<g>
		
			<rect x="387.7" y="117.6" transform="matrix(-1 -4.418922e-11 4.418922e-11 -1 781.5786 241.3497)" class="st1" width="6.1" height="6.1"/>
	</g>
	<g>
		<polygon class="st3" points="390.8,123.7 393.8,120.4 393.8,117.6 390.8,117.6 		"/>
	</g>
	<g>
		
			<rect x="390" y="141.5" transform="matrix(-1 -4.565027e-11 4.565027e-11 -1 785.953 288.844)" class="st0" width="5.9" height="5.9"/>
	</g>
	<g>
		
			<rect x="379.5" y="141.5" transform="matrix(-1 -4.381219e-11 4.381219e-11 -1 765.0082 288.844)" class="st0" width="5.9" height="5.9"/>
	</g>
	<g>
		
			<rect x="424.6" y="136" transform="matrix(-1 -4.381219e-11 4.381219e-11 -1 855.0485 278.0198)" class="st3" width="5.9" height="5.9"/>
	</g>
</g>
<g>
	<polygon class="st1" points="245.8,106.5 236.9,106.5 241.4,97.8 	"/>
</g>
<g>
	<polygon class="st1" points="255.7,106.5 246.8,106.5 251.3,97.8 	"/>
</g>
<g>
	<polygon class="st1" points="265.5,106.5 256.6,106.5 261.1,97.7 	"/>
</g>
<g>
	<polygon class="st1" points="225.6,106.5 216.7,106.5 221.1,97.8 	"/>
</g>
<g>
	<polygon class="st1" points="235.5,106.5 226.5,106.5 231,97.8 	"/>
</g>
<g>
	<g>
		<rect x="386.4" y="152.8" class="st0" width="4.6" height="4.6"/>
	</g>
	<g>
		<polygon class="st11" points="388.7,157.4 386.4,154.9 386.4,152.8 388.7,152.8 		"/>
	</g>
	<g>
		<polygon class="st1" points="393.4,155.2 368.8,155.2 359.3,166.6 359.3,166.6 359.3,166.6 359.3,186.6 402.9,186.6 402.9,166.6 
					"/>
	</g>
	<g>
		<polygon class="st0" points="402.9,166.5 378.4,166.5 368.8,155.1 393.4,155.1 		"/>
	</g>
	<g>
		<rect x="378.4" y="166.5" class="st3" width="24.6" height="20.1"/>
	</g>
	<g>
		<rect x="365.8" y="169.6" class="st3" width="5.9" height="5.9"/>
	</g>
	<g>
		<g>
			<g>
				<polygon class="st15" points="376.4,156.3 382.8,156.3 389.1,163.5 382.7,163.5 				"/>
				<path class="st0" d="M389.1,163.9h-6.4l-0.3-0.1l-6.2-7.3l0.3-0.6h6.4l0.3,0.1l6.2,7.3L389.1,163.9z M382.9,163.2h5.5l-5.6-6.6
					h-5.5L382.9,163.2z"/>
			</g>
			<g>
				<line class="st11" x1="382.5" y1="163.5" x2="388.9" y2="163.5"/>
				<rect x="382.5" y="163.2" class="st0" width="6.4" height="0.7"/>
			</g>
			<g>
				<line class="st11" x1="379.5" y1="159.9" x2="385.9" y2="159.9"/>
				<rect x="379.5" y="159.6" class="st0" width="6.4" height="0.7"/>
			</g>
		</g>
		<g>
			<g>
				<polygon class="st15" points="382.7,156.3 389.1,156.3 395.2,163.5 388.8,163.5 				"/>
				<path class="st0" d="M395.2,163.9h-6.4l-0.3-0.1l-6.1-7.3l0.3-0.6h6.4l0.3,0.1l6.1,7.3L395.2,163.9z M389,163.2h5.5l-5.5-6.6
					h-5.5L389,163.2z"/>
			</g>
			<g>
				<line class="st11" x1="388.8" y1="163.5" x2="395.2" y2="163.5"/>
				<rect x="388.8" y="163.2" class="st0" width="6.4" height="0.7"/>
			</g>
			<g>
				<line class="st11" x1="385.8" y1="159.9" x2="392.2" y2="159.9"/>
				<rect x="385.8" y="159.6" class="st0" width="6.4" height="0.7"/>
			</g>
		</g>
	</g>
</g>
<path class="st0" d="M255.3,170.6c4.6,6.9,15.2,12.7,34.9,11.1c19.3-1.6,18-7.5,34.3-7.5s34.7,12.8,34.7,7.5c0-6,0-12,0-12
	l-98.7-2.7L255.3,170.6z"/>
<circle class="st16" cx="336.3" cy="161.4" r="8.8"/>
<circle class="st17" cx="336.3" cy="161.4" r="6.7"/>
<circle class="st18" cx="336.3" cy="161.4" r="2.8"/>
<rect x="334.9" y="166" class="st7" width="2.7" height="38.2"/>
<path class="st0" d="M449.9,171.3c-11,7-33.8,8.7-46.9,8.7v-10l24.2-9.8l22.7,0.5C449.9,160.6,460.9,164.3,449.9,171.3z"/>
<g>
	<rect x="382.6" y="170.2" class="st0" width="4.5" height="4.5"/>
	<rect x="388.1" y="170.2" class="st0" width="4.5" height="4.5"/>
	<rect x="382.6" y="175.4" class="st0" width="4.5" height="4.5"/>
	<rect x="388.1" y="175.4" class="st0" width="4.5" height="4.5"/>
	<rect x="382.6" y="180.7" class="st0" width="4.5" height="4.5"/>
	<rect x="388.1" y="180.7" class="st0" width="4.5" height="4.5"/>
</g>
<circle class="st11" cx="432.5" cy="103.4" r="4.1"/>
<circle class="st11" cx="432.5" cy="115.4" r="4.1"/>
<path class="st7" d="M272.2,145.3c0.9-2,5.9-6.1,7.8-7.5c6.7-4.9,12.5-7.8,23.7-7.8c14.9,0,51.9,16.8,43.2,16.9
	c-14.6,0.1-21.7,1.7-28.3,2.7c-14.3,2.3-5.6,10.1-20.7,13c-12,2.3-18.7,1-23.3-2C264.2,154,270.5,149.1,272.2,145.3z"/>
<g>
	<g>
		<polygon class="st3" points="348.4,89.7 348.4,118.5 301.4,118.5 301.4,138.9 367.3,138.9 367.3,89.7 		"/>
	</g>
	<g>
		<polygon class="st1" points="301.4,118.5 348.4,118.5 348.4,89.7 311.9,89.7 		"/>
	</g>
	<g>
		<polygon class="st11" points="351.5,81.8 364.2,81.8 367.3,89.7 348.4,89.7 		"/>
	</g>
	<g>
		
			<rect x="351.5" y="63.9" transform="matrix(-1 -4.442725e-11 4.442725e-11 -1 715.6912 145.6548)" class="st3" width="12.6" height="17.9"/>
	</g>
	<g>
		<polygon class="st11" points="357.8,58.1 364.2,63.9 351.5,63.9 		"/>
	</g>
	<g>
		<path class="st0" d="M309.9,124.3c-1.6,0-3,1.3-3,3v5.9h5.9v-5.9C312.9,125.6,311.6,124.3,309.9,124.3z"/>
	</g>
	<g>
		<path class="st0" d="M324.2,124.3c-1.6,0-3,1.3-3,3v5.9h5.9v-5.9C327.2,125.6,325.9,124.3,324.2,124.3z"/>
	</g>
	<g>
		<path class="st0" d="M338.6,124.3c-1.6,0-3,1.3-3,3v5.9h5.9v-5.9C341.5,125.6,340.2,124.3,338.6,124.3z"/>
	</g>
	<g>
		<g>
			<g>
				<polygon class="st11" points="337.6,91.9 331.2,91.9 327.1,102.8 333.5,102.8 				"/>
				<path class="st1" d="M333.5,103.2h-6.4l-0.3-0.5l4.1-10.9l0.3-0.2h6.4l0.3,0.5l-4.1,10.9L333.5,103.2z M327.6,102.5h5.7
					l3.8-10.2h-5.7L327.6,102.5z"/>
			</g>
			<g>
				<line class="st11" x1="334.9" y1="99.2" x2="328.5" y2="99.2"/>
				<rect x="328.5" y="98.8" class="st1" width="6.4" height="0.7"/>
			</g>
			<g>
				<line class="st11" x1="336.3" y1="95.6" x2="329.8" y2="95.6"/>
				<rect x="329.8" y="95.2" class="st1" width="6.4" height="0.7"/>
			</g>
		</g>
		<g>
			<g>
				<polygon class="st11" points="331.3,91.9 324.9,91.9 320.9,102.8 327.3,102.8 				"/>
				<path class="st1" d="M327.3,103.2h-6.4l-0.3-0.5l4.1-10.9l0.3-0.2h6.4l0.3,0.5l-4.1,10.9L327.3,103.2z M321.4,102.5h5.7
					l3.8-10.2h-5.7L321.4,102.5z"/>
			</g>
			<g>
				<line class="st11" x1="328.6" y1="99.2" x2="322.2" y2="99.2"/>
				<rect x="322.2" y="98.8" class="st1" width="6.4" height="0.7"/>
			</g>
			<g>
				<line class="st11" x1="330" y1="95.6" x2="323.6" y2="95.6"/>
				<rect x="323.6" y="95.2" class="st1" width="6.4" height="0.7"/>
			</g>
		</g>
		<g>
			<g>
				<polygon class="st11" points="325.1,91.9 318.7,91.9 314.6,102.8 321,102.8 				"/>
				<path class="st1" d="M321,103.2h-6.4l-0.3-0.5l4.1-10.9l0.3-0.2h6.4l0.3,0.5l-4.1,10.9L321,103.2z M315.1,102.5h5.7l3.8-10.2
					h-5.7L315.1,102.5z"/>
			</g>
			<g>
				<line class="st11" x1="322.4" y1="99.2" x2="316" y2="99.2"/>
				<rect x="316" y="98.8" class="st1" width="6.4" height="0.7"/>
			</g>
			<g>
				<line class="st11" x1="323.7" y1="95.6" x2="317.3" y2="95.6"/>
				<rect x="317.3" y="95.2" class="st1" width="6.4" height="0.7"/>
			</g>
		</g>
	</g>
	<g>
		<path class="st11" d="M357.8,97.7c-1.6,0-3,1.3-3,3v5.9h5.9v-5.9C360.8,99.1,359.5,97.7,357.8,97.7z"/>
	</g>
</g>
<path class="st7" d="M369.9,128.3c-7.4-14-5.5,9.8-21,9c-15.9-0.9-17,7-17,7l39-0.3L369.9,128.3z"/>
<g>
	<path class="st14" d="M304.9,162.8c0-3.6-2.9-13.6-6.5-13.6s-6.5,10-6.5,13.6s2.9,6.5,6.5,6.5S304.9,166.4,304.9,162.8z"/>
</g>
<g>
	<path class="st14" d="M286.5,162.8c0-3.6-2.9-13.6-6.5-13.6s-6.5,10-6.5,13.6s2.9,6.5,6.5,6.5S286.5,166.4,286.5,162.8z"/>
</g>
<g>
	<path class="st7" d="M373.5,137.5c0-4.5-3.6-16.9-8.1-16.9c-4.5,0-8.1,12.4-8.1,16.9s3.6,8.1,8.1,8.1
		C369.9,145.6,373.5,141.9,373.5,137.5z"/>
</g>
<path class="st9" d="M202.9,127.1c-0.6-0.8-1.1,6.1,1.7,12.3c1.6,3.7-3.6,7.6-3.6,7.6h8.5L202.9,127.1z"/>
<path class="st9" d="M217.2,127.1c-0.6-0.8-1.1,6.1,1.7,12.3c1.6,3.7-3.6,7.6-3.6,7.6h8.5L217.2,127.1z"/>
<g>
	<path class="st0" d="M478.7,154c0-3.6-2.9-13.6-6.5-13.6c-1.1,0-0.3,4.1,2.2,10.2c2,4.6-5.8,9.9-2.2,9.9S478.7,157.6,478.7,154z"/>
</g>
<g>
	<path class="st0" d="M305.5,162.8c0-3.6-2.9-13.6-6.5-13.6c-1.1,0-0.3,4.1,2.2,10.2c2,4.6-5.9,5.1-2.2,9.9
		C302.6,169.3,305.5,166.4,305.5,162.8z"/>
</g>
<g>
	<path class="st0" d="M287.2,162.8c0-3.6-2.9-13.6-6.5-13.6c-1.1,0-0.3,4.1,2.2,10.2c2,4.6-6.4,5.7-2.2,9.9
		C284.2,169.3,287.2,166.4,287.2,162.8z"/>
</g>
<g>
	<path class="st0" d="M464.3,154c0-3.6-2.9-13.6-6.5-13.6c-1.1,0-0.3,4.1,2.2,10.2c2,4.6-5.8,9.9-2.2,9.9S464.3,157.6,464.3,154z"/>
</g>
<g>
	<path class="st0" d="M450,154c0-3.6-2.9-13.6-6.5-13.6c-1.1,0-0.3,4.1,2.2,10.2c2,4.6-5.8,9.9-2.2,9.9S450,157.6,450,154z"/>
</g>
<ellipse class="st3" cx="336.4" cy="209.5" rx="8" ry="7.7"/>
<path class="st7" d="M494.2,157.1c0,0,11.4,34.4-54,36.1s-95.5-1.3-95.5,4.8c-0.1,12.6,32.5,11.8,46.2,11.5
	c13.7-0.3,59.3,2.4,67.8,11.6c26.9,28.8,67.8,23.4,67.8,23.4l-4.2-97.6l-14.8-3.9L494.2,157.1z"/>
<g>
	<path class="st0" d="M362.3,63.9h1.8v17.9h-12.6c0,0,4.7-4.6,7.1-8.8C361,68.8,362.3,63.9,362.3,63.9z"/>
</g>
<g>
	<g>
		<g>
			<g>
				<polygon class="st14" points="98.9,155.2 93.3,155.2 85.3,164.7 90.9,164.7 				"/>
				<path class="st0" d="M90.9,165h-5.6l-0.2-0.5l8-9.5l0.2-0.1h5.6l0.2,0.5l-8,9.5L90.9,165z M86,164.4h4.8l7.5-8.9h-4.8L86,164.4z
					"/>
			</g>
			<g>
				<line class="st11" x1="93.6" y1="161.5" x2="88" y2="161.5"/>
				<rect x="88" y="161.2" class="st0" width="5.6" height="0.6"/>
			</g>
			<g>
				<line class="st11" x1="96.3" y1="158.3" x2="90.7" y2="158.3"/>
				<rect x="90.7" y="158" class="st0" width="5.6" height="0.6"/>
			</g>
		</g>
		<g>
			<g>
				<polygon class="st14" points="93.4,155.2 87.8,155.2 79.9,164.7 85.5,164.7 				"/>
				<path class="st0" d="M85.5,165h-5.6l-0.2-0.5l8-9.5l0.2-0.1h5.6l0.2,0.5l-8,9.5L85.5,165z M80.5,164.4h4.8l7.5-8.9H88
					L80.5,164.4z"/>
			</g>
			<g>
				<line class="st11" x1="88.1" y1="161.5" x2="82.5" y2="161.5"/>
				<rect x="82.5" y="161.2" class="st0" width="5.6" height="0.6"/>
			</g>
			<g>
				<line class="st11" x1="90.8" y1="158.3" x2="85.2" y2="158.3"/>
				<rect x="85.2" y="158" class="st0" width="5.6" height="0.6"/>
			</g>
		</g>
		<g>
			<g>
				<polygon class="st14" points="88,155.2 82.4,155.2 74.4,164.7 80,164.7 				"/>
				<path class="st0" d="M80,165h-5.6l-0.2-0.5l8-9.5l0.2-0.1H88l0.2,0.5l-8,9.5L80,165z M75.1,164.4h4.8l7.5-8.9h-4.8L75.1,164.4z"
					/>
			</g>
			<g>
				<line class="st11" x1="82.7" y1="161.5" x2="77.1" y2="161.5"/>
				<rect x="77.1" y="161.2" class="st0" width="5.6" height="0.6"/>
			</g>
			<g>
				<line class="st11" x1="85.3" y1="158.3" x2="79.7" y2="158.3"/>
				<rect x="79.7" y="158" class="st0" width="5.6" height="0.6"/>
			</g>
		</g>
	</g>
	<g>
		<g>
			<g>
				<polygon class="st14" points="115.1,155.2 109.5,155.2 101.5,164.7 107.1,164.7 				"/>
				<path class="st0" d="M107.1,165h-5.6l-0.2-0.5l8-9.5l0.2-0.1h5.6l0.2,0.5l-8,9.5L107.1,165z M102.2,164.4h4.8l7.5-8.9h-4.8
					L102.2,164.4z"/>
			</g>
			<g>
				<line class="st11" x1="109.8" y1="161.5" x2="104.2" y2="161.5"/>
				<rect x="104.2" y="161.2" class="st0" width="5.6" height="0.6"/>
			</g>
			<g>
				<line class="st11" x1="112.4" y1="158.3" x2="106.8" y2="158.3"/>
				<rect x="106.8" y="158" class="st0" width="5.6" height="0.6"/>
			</g>
		</g>
		<g>
			<g>
				<polygon class="st14" points="109.6,155.2 104,155.2 96,164.7 101.6,164.7 				"/>
				<path class="st0" d="M101.6,165H96l-0.2-0.5l8-9.5l0.2-0.1h5.6l0.2,0.5l-8,9.5L101.6,165z M96.7,164.4h4.8l7.5-8.9h-4.8
					L96.7,164.4z"/>
			</g>
			<g>
				<line class="st11" x1="104.3" y1="161.5" x2="98.7" y2="161.5"/>
				<rect x="98.7" y="161.2" class="st0" width="5.6" height="0.6"/>
			</g>
			<g>
				<line class="st11" x1="106.9" y1="158.3" x2="101.3" y2="158.3"/>
				<rect x="101.3" y="158" class="st0" width="5.6" height="0.6"/>
			</g>
		</g>
		<g>
			<g>
				<polygon class="st14" points="104.1,155.2 98.5,155.2 90.6,164.7 96.2,164.7 				"/>
				<path class="st0" d="M96.2,165h-5.6l-0.2-0.5l8-9.5l0.2-0.1h5.6l0.2,0.5l-8,9.5L96.2,165z M91.2,164.4H96l7.5-8.9h-4.8
					L91.2,164.4z"/>
			</g>
			<g>
				<line class="st11" x1="98.8" y1="161.5" x2="93.2" y2="161.5"/>
				<rect x="93.2" y="161.2" class="st0" width="5.6" height="0.6"/>
			</g>
			<g>
				<line class="st11" x1="101.5" y1="158.3" x2="95.9" y2="158.3"/>
				<rect x="95.9" y="158" class="st0" width="5.6" height="0.6"/>
			</g>
		</g>
	</g>
</g>
<g>
	<g>
		<g>
			<g>
				<polygon class="st14" points="138.7,155.2 132.7,155.2 124.2,165.3 130.2,165.3 				"/>
				<path class="st0" d="M130.2,165.6h-6l-0.2-0.5l8.5-10.1l0.2-0.1h6l0.2,0.5l-8.5,10.1L130.2,165.6z M124.9,165h5.1l8-9.5h-5.1
					L124.9,165z"/>
			</g>
			<g>
				<line class="st11" x1="133" y1="161.9" x2="127.1" y2="161.9"/>
				<rect x="127.1" y="161.6" class="st0" width="6" height="0.6"/>
			</g>
			<g>
				<line class="st11" x1="135.9" y1="158.6" x2="129.9" y2="158.6"/>
				<rect x="129.9" y="158.2" class="st0" width="6" height="0.6"/>
			</g>
		</g>
		<g>
			<g>
				<polygon class="st14" points="132.8,155.2 126.9,155.2 118.4,165.3 124.4,165.3 				"/>
				<path class="st0" d="M124.4,165.6h-6l-0.2-0.5l8.5-10.1l0.2-0.1h6l0.2,0.5l-8.5,10.1L124.4,165.6z M119.1,165h5.1l8-9.5H127
					L119.1,165z"/>
			</g>
			<g>
				<line class="st11" x1="127.2" y1="161.9" x2="121.2" y2="161.9"/>
				<rect x="121.2" y="161.6" class="st0" width="6" height="0.6"/>
			</g>
			<g>
				<line class="st11" x1="130" y1="158.6" x2="124.1" y2="158.6"/>
				<rect x="124.1" y="158.2" class="st0" width="6" height="0.6"/>
			</g>
		</g>
		<g>
			<g>
				<polygon class="st14" points="127,155.2 121.1,155.2 112.6,165.3 118.5,165.3 				"/>
				<path class="st0" d="M118.5,165.6h-6l-0.2-0.5l8.5-10.1l0.2-0.1h6l0.2,0.5l-8.5,10.1L118.5,165.6z M113.3,165h5.1l8-9.5h-5.1
					L113.3,165z"/>
			</g>
			<g>
				<line class="st11" x1="121.4" y1="161.9" x2="115.4" y2="161.9"/>
				<rect x="115.4" y="161.6" class="st0" width="6" height="0.6"/>
			</g>
			<g>
				<line class="st11" x1="124.2" y1="158.6" x2="118.3" y2="158.6"/>
				<rect x="118.3" y="158.2" class="st0" width="6" height="0.6"/>
			</g>
		</g>
	</g>
	<g>
		<g>
			<g>
				<polygon class="st14" points="155.9,155.2 149.9,155.2 141.4,165.3 147.4,165.3 				"/>
				<path class="st0" d="M147.4,165.6h-6l-0.2-0.5l8.5-10.1l0.2-0.1h6l0.2,0.5l-8.5,10.1L147.4,165.6z M142.1,165h5.1l8-9.5h-5.1
					L142.1,165z"/>
			</g>
			<g>
				<line class="st11" x1="150.2" y1="161.9" x2="144.3" y2="161.9"/>
				<rect x="144.3" y="161.6" class="st0" width="6" height="0.6"/>
			</g>
			<g>
				<line class="st11" x1="153.1" y1="158.6" x2="147.1" y2="158.6"/>
				<rect x="147.1" y="158.2" class="st0" width="6" height="0.6"/>
			</g>
		</g>
		<g>
			<g>
				<polygon class="st14" points="150,155.2 144.1,155.2 135.6,165.3 141.6,165.3 				"/>
				<path class="st0" d="M141.6,165.6h-6l-0.2-0.5l8.5-10.1l0.2-0.1h6l0.2,0.5l-8.5,10.1L141.6,165.6z M136.3,165h5.1l8-9.5h-5.1
					L136.3,165z"/>
			</g>
			<g>
				<line class="st11" x1="144.4" y1="161.9" x2="138.4" y2="161.9"/>
				<rect x="138.4" y="161.6" class="st0" width="6" height="0.6"/>
			</g>
			<g>
				<line class="st11" x1="147.2" y1="158.6" x2="141.3" y2="158.6"/>
				<rect x="141.3" y="158.2" class="st0" width="6" height="0.6"/>
			</g>
		</g>
		<g>
			<g>
				<polygon class="st14" points="144.2,155.2 138.3,155.2 129.8,165.3 135.7,165.3 				"/>
				<path class="st0" d="M135.7,165.6h-6l-0.2-0.5L138,155l0.2-0.1h6l0.2,0.5l-8.5,10.1L135.7,165.6z M130.5,165h5.1l8-9.5h-5.1
					L130.5,165z"/>
			</g>
			<g>
				<line class="st11" x1="138.6" y1="161.9" x2="132.6" y2="161.9"/>
				<rect x="132.6" y="161.6" class="st0" width="6" height="0.6"/>
			</g>
			<g>
				<line class="st11" x1="141.4" y1="158.6" x2="135.5" y2="158.6"/>
				<rect x="135.5" y="158.2" class="st0" width="6" height="0.6"/>
			</g>
		</g>
	</g>
</g>
<g>
	<g>
		<g>
			<g>
				<polygon class="st14" points="180.4,155.2 174.5,155.2 166,165.3 172,165.3 				"/>
				<path class="st0" d="M172,165.6h-6l-0.2-0.5l8.5-10.1l0.2-0.1h6l0.2,0.5l-8.5,10.1L172,165.6z M166.7,165h5.1l8-9.5h-5.1
					L166.7,165z"/>
			</g>
			<g>
				<line class="st11" x1="174.8" y1="161.9" x2="168.8" y2="161.9"/>
				<rect x="168.8" y="161.6" class="st0" width="6" height="0.6"/>
			</g>
			<g>
				<line class="st11" x1="177.6" y1="158.6" x2="171.7" y2="158.6"/>
				<rect x="171.7" y="158.2" class="st0" width="6" height="0.6"/>
			</g>
		</g>
		<g>
			<g>
				<polygon class="st14" points="174.6,155.2 168.7,155.2 160.2,165.3 166.1,165.3 				"/>
				<path class="st0" d="M166.1,165.6h-6l-0.2-0.5l8.5-10.1l0.2-0.1h6l0.2,0.5l-8.5,10.1L166.1,165.6z M160.9,165h5.1l8-9.5h-5.1
					L160.9,165z"/>
			</g>
			<g>
				<line class="st11" x1="168.9" y1="161.9" x2="163" y2="161.9"/>
				<rect x="163" y="161.6" class="st0" width="6" height="0.6"/>
			</g>
			<g>
				<line class="st11" x1="171.8" y1="158.6" x2="165.8" y2="158.6"/>
				<rect x="165.8" y="158.2" class="st0" width="6" height="0.6"/>
			</g>
		</g>
		<g>
			<g>
				<polygon class="st14" points="168.8,155.2 162.8,155.2 154.3,165.3 160.3,165.3 				"/>
				<path class="st0" d="M160.3,165.6h-6l-0.2-0.5l8.5-10.1l0.2-0.1h6l0.2,0.5l-8.5,10.1L160.3,165.6z M155,165h5.1l8-9.5H163
					L155,165z"/>
			</g>
			<g>
				<line class="st11" x1="163.1" y1="161.9" x2="157.2" y2="161.9"/>
				<rect x="157.2" y="161.6" class="st0" width="6" height="0.6"/>
			</g>
			<g>
				<line class="st11" x1="166" y1="158.6" x2="160" y2="158.6"/>
				<rect x="160" y="158.2" class="st0" width="6" height="0.6"/>
			</g>
		</g>
	</g>
	<g>
		<g>
			<g>
				<polygon class="st14" points="197.6,155.2 191.7,155.2 183.2,165.3 189.2,165.3 				"/>
				<path class="st0" d="M189.2,165.6h-6l-0.2-0.5l8.5-10.1l0.2-0.1h6l0.2,0.5l-8.5,10.1L189.2,165.6z M183.9,165h5.1l8-9.5h-5.1
					L183.9,165z"/>
			</g>
			<g>
				<line class="st11" x1="192" y1="161.9" x2="186" y2="161.9"/>
				<rect x="186" y="161.6" class="st0" width="6" height="0.6"/>
			</g>
			<g>
				<line class="st11" x1="194.8" y1="158.6" x2="188.9" y2="158.6"/>
				<rect x="188.9" y="158.2" class="st0" width="6" height="0.6"/>
			</g>
		</g>
		<g>
			<g>
				<polygon class="st14" points="191.8,155.2 185.9,155.2 177.4,165.3 183.3,165.3 				"/>
				<path class="st0" d="M183.3,165.6h-6l-0.2-0.5l8.5-10.1l0.2-0.1h6l0.2,0.5l-8.5,10.1L183.3,165.6z M178.1,165h5.1l8-9.5H186
					L178.1,165z"/>
			</g>
			<g>
				<line class="st11" x1="186.1" y1="161.9" x2="180.2" y2="161.9"/>
				<rect x="180.2" y="161.6" class="st0" width="6" height="0.6"/>
			</g>
			<g>
				<line class="st11" x1="189" y1="158.6" x2="183" y2="158.6"/>
				<rect x="183" y="158.2" class="st0" width="6" height="0.6"/>
			</g>
		</g>
		<g>
			<g>
				<polygon class="st14" points="186,155.2 180,155.2 171.5,165.3 177.5,165.3 				"/>
				<path class="st0" d="M177.5,165.6h-6l-0.2-0.5l8.5-10.1l0.2-0.1h6l0.2,0.5l-8.5,10.1L177.5,165.6z M172.2,165h5.1l8-9.5h-5.1
					L172.2,165z"/>
			</g>
			<g>
				<line class="st11" x1="180.3" y1="161.9" x2="174.4" y2="161.9"/>
				<rect x="174.4" y="161.6" class="st0" width="6" height="0.6"/>
			</g>
			<g>
				<line class="st11" x1="183.2" y1="158.6" x2="177.2" y2="158.6"/>
				<rect x="177.2" y="158.2" class="st0" width="6" height="0.6"/>
			</g>
		</g>
	</g>
</g>
<g>
	<g>
		<g>
			<g>
				<polygon class="st14" points="148.9,141.3 143,141.3 134.5,151.4 140.5,151.4 				"/>
				<path class="st0" d="M140.5,151.7h-6l-0.2-0.5l8.5-10.1l0.2-0.1h6l0.2,0.5l-8.5,10.1L140.5,151.7z M135.2,151.1h5.1l8-9.5h-5.1
					L135.2,151.1z"/>
			</g>
			<g>
				<line class="st11" x1="143.3" y1="148" x2="137.3" y2="148"/>
				<rect x="137.3" y="147.7" class="st0" width="6" height="0.6"/>
			</g>
			<g>
				<line class="st11" x1="146.1" y1="144.7" x2="140.2" y2="144.7"/>
				<rect x="140.2" y="144.3" class="st0" width="6" height="0.6"/>
			</g>
		</g>
		<g>
			<g>
				<polygon class="st14" points="143.1,141.3 137.2,141.3 128.7,151.4 134.6,151.4 				"/>
				<path class="st0" d="M134.6,151.7h-6l-0.2-0.5l8.5-10.1l0.2-0.1h6l0.2,0.5l-8.5,10.1L134.6,151.7z M129.4,151.1h5.1l8-9.5h-5.1
					L129.4,151.1z"/>
			</g>
			<g>
				<line class="st11" x1="137.4" y1="148" x2="131.5" y2="148"/>
				<rect x="131.5" y="147.7" class="st0" width="6" height="0.6"/>
			</g>
			<g>
				<line class="st11" x1="140.3" y1="144.7" x2="134.3" y2="144.7"/>
				<rect x="134.3" y="144.3" class="st0" width="6" height="0.6"/>
			</g>
		</g>
		<g>
			<g>
				<polygon class="st14" points="137.3,141.3 131.3,141.3 122.8,151.4 128.8,151.4 				"/>
				<path class="st0" d="M128.8,151.7h-6l-0.2-0.5l8.5-10.1l0.2-0.1h6l0.2,0.5l-8.5,10.1L128.8,151.7z M123.5,151.1h5.1l8-9.5h-5.1
					L123.5,151.1z"/>
			</g>
			<g>
				<line class="st11" x1="131.6" y1="148" x2="125.7" y2="148"/>
				<rect x="125.7" y="147.7" class="st0" width="6" height="0.6"/>
			</g>
			<g>
				<line class="st11" x1="134.5" y1="144.7" x2="128.5" y2="144.7"/>
				<rect x="128.5" y="144.3" class="st0" width="6" height="0.6"/>
			</g>
		</g>
	</g>
	<g>
		<g>
			<g>
				<polygon class="st14" points="166.1,141.3 160.2,141.3 151.7,151.4 157.7,151.4 				"/>
				<path class="st0" d="M157.7,151.7h-6l-0.2-0.5l8.5-10.1l0.2-0.1h6l0.2,0.5l-8.5,10.1L157.7,151.7z M152.4,151.1h5.1l8-9.5h-5.1
					L152.4,151.1z"/>
			</g>
			<g>
				<line class="st11" x1="160.5" y1="148" x2="154.5" y2="148"/>
				<rect x="154.5" y="147.7" class="st0" width="6" height="0.6"/>
			</g>
			<g>
				<line class="st11" x1="163.3" y1="144.7" x2="157.4" y2="144.7"/>
				<rect x="157.4" y="144.3" class="st0" width="6" height="0.6"/>
			</g>
		</g>
		<g>
			<g>
				<polygon class="st14" points="160.3,141.3 154.4,141.3 145.9,151.4 151.8,151.4 				"/>
				<path class="st0" d="M151.8,151.7h-6l-0.2-0.5l8.5-10.1l0.2-0.1h6l0.2,0.5l-8.5,10.1L151.8,151.7z M146.6,151.1h5.1l8-9.5h-5.1
					L146.6,151.1z"/>
			</g>
			<g>
				<line class="st11" x1="154.6" y1="148" x2="148.7" y2="148"/>
				<rect x="148.7" y="147.7" class="st0" width="6" height="0.6"/>
			</g>
			<g>
				<line class="st11" x1="157.5" y1="144.7" x2="151.5" y2="144.7"/>
				<rect x="151.5" y="144.3" class="st0" width="6" height="0.6"/>
			</g>
		</g>
		<g>
			<g>
				<polygon class="st14" points="154.5,141.3 148.5,141.3 140,151.4 146,151.4 				"/>
				<path class="st0" d="M146,151.7h-6l-0.2-0.5l8.5-10.1l0.2-0.1h6l0.2,0.5l-8.5,10.1L146,151.7z M140.7,151.1h5.1l8-9.5h-5.1
					L140.7,151.1z"/>
			</g>
			<g>
				<line class="st11" x1="148.8" y1="148" x2="142.9" y2="148"/>
				<rect x="142.9" y="147.7" class="st0" width="6" height="0.6"/>
			</g>
			<g>
				<line class="st11" x1="151.7" y1="144.7" x2="145.7" y2="144.7"/>
				<rect x="145.7" y="144.3" class="st0" width="6" height="0.6"/>
			</g>
		</g>
	</g>
</g>
</svg>
